Il COVID-19 ha influenzato la nostra felicità?
…
Il Sud America risulta aver avuto una decrescita significativa rispetto agli altri continenti che sono o aumentati o rimasti pressochè costanti.

# A tibble: 138 x 4
# Rowwise:  Country
   Country     `2015` `2020` Change
   <chr>        <dbl>  <dbl>  <dbl>
 1 Venezuela     6.81   5.05 -1.76 
 2 Zambia        5.13   3.76 -1.37 
 3 Zimbabwe      4.61   3.30 -1.31 
 4 Afghanistan   3.58   2.57 -1.01 
 5 India         4.57   3.57 -0.992
 6 Botswana      4.33   3.48 -0.853
 7 Malawi        4.29   3.54 -0.754
 8 Mexico        7.19   6.47 -0.722
 9 Brazil        6.98   6.38 -0.607
10 Algeria       5.60   5.01 -0.600
# ... with 128 more rows
…
